#############
#...........#
###A#D#A#C###
  #C#D#B#B#
  #########

-------------
  
#############
#AA.........#
###.#D#.#C###
  #C#D#B#B#
  #########
3 + 6

#############
#AA.B.......#
###.#D#.#C###
  #C#D#.#B#
  #########
50
  
#############
#AA.B.......#
###.#D#.#.###
  #C#D#C#B#
  #########
500

#############
#AA.B.....B.#
###.#D#.#.###
  #C#D#C#.#
  #########
30

#############
#AA.B.....B.#
###.#.#.#D###
  #C#.#C#D#
  #########
7000 + 7000

#############
#AA.........#
###.#B#.#D###
  #C#B#C#D#
  #########
30 + 60

#############
#AA.........#
###.#B#C#D###
  #.#B#C#D#
  #########
700

#############
#A..........#
###A#B#C#D###
  #A#B#C#D#
  #########
3 + 3

=============
15385
